[
  {
    "normalForm": "cael",
    "id": 2,
    "translations": [ "to have:*", "to get" ],
    "stem": "ca",
    "preterite": {
      "stem": "caeth",
      "singFirst": "ces",
      "singSecond": "cest",
      "singThird": "caeth"
    },
    "future": {
      "singFirst": "ca",
      "singSecond": "cei",
      "singThird": [ "caiff", "ceith" ],
      "plurSecond": "cewch"
    },
    "imperative": {
      "has": false
    }
  },
  {
    "normalForm": "cachu",
    "id": 129,
    "translations": "defecate"
  },
  {
    "normalForm": "cadarnhau",
    "id": 130
  },
  {
    "normalForm": "cadw",
    "id": 131
  },
  {
    "normalForm": "caledu",
    "versions": [
      "caledo",
      "cledo"
    ],
    "id": 132
  },
  {
    "normalForm": "camdrin",
    "versions": [
      "cam-drin"
    ],
    "id": 133
  },
  {
    "normalForm": "camosod",
    "id": 134
  },
  {
    "normalForm": "camu",
    "id": 135,
    "translations": "to step"
  },
  {
    "normalForm": "canfod",
    "stem": "canfydd",
    "id": 136,
    "translations": [ "to see" ]
  },
  {
    "normalForm": "caniatáu",
    "stem": "caniata",
    "id": 137
  },
  {
    "normalForm": "canlyn",
    "id": 138
  },
  {
    "normalForm": "canmol",
    "id": 139
  },
  {
    "normalForm": "canoli",
    "id": 140
  },
  {
    "normalForm": "canu",
    "id": 141,
    "translations": "to sing"
  },
  {
    "normalForm": "carco",
    "id": 142
  },
  {
    "normalForm": "cario",
    "id": 143
  },
  {
    "normalForm": "caru",
    "translations": "to love",
    "id": 144
  },
  {
    "normalForm": "casáu",
    "stem": "casa",
    "id": 145
  },
  {
    "normalForm": "casglu",
    "id": 146
  },
  {
    "normalForm": "cau",
    "id": 147,
    "translations": "to close",
    "stem": "cae",
    "etymology": "From Proto-Celtic *kageti, from Proto-Indo-European *kagʰ- (“catch, grasp”) (compare Oscan (kahad, “may he take”), Albanian kam (“to have, hold”)."
  },
  {
    "normalForm": "cawna",
    "id": 148
  },
  {
    "normalForm": "cecru",
    "id": 149
  },
  {
    "normalForm": "cefnogi",
    "id": 150
  },
  {
    "normalForm": "ceisio",
    "id": 151,
    "translations": "to try"
  },
  {
    "normalForm": "celu",
    "id": 152
  },
  {
    "normalForm": "celynna",
    "id": 153
  },
  {
    "normalForm": "cenhedlu",
    "id": 154
  },
  {
    "normalForm": "cenna",
    "id": 155
  },
  {
    "normalForm": "cerdded",
    "id": 156,
    "translations": [ "to walk" ]
  },
  {
    "normalForm": "ceulo",
    "id": 157
  },
  {
    "normalForm": "cicio",
    "id": 158
  },
  {
    "normalForm": "cildroi",
    "id": 159
  },
  {
    "normalForm": "ciledrych",
    "id": 160
  },
  {
    "normalForm": "cilio",
    "id": 161
  },
  {
    "normalForm": "claddu",
    "id": 162
  },
  {
    "normalForm": "clau",
    "id": 163
  },
  {
    "normalForm": "clicio",
    "id": 164
  },
  {
    "normalForm": "clirio",
    "id": 165
  },
  {
    "normalForm": "clodfori",
    "id": 166
  },
  {
    "normalForm": "cloi",
    "id": 19,
    "translations": [ "to close", "to lock" ]
  },
  {
    "normalForm": "clymu",
    "id": 167
  },
  {
    "normalForm": "clywed",
    "etymology": "From Proto-Brythonic *klüwid, from Proto-Celtic *klusīti, from Proto-Indo-European *ḱlew-",
    "id": 21,
    "translations": [ "to hear" ]
  },
  {
    "normalForm": "clymu",
    "id": 168
  },
  {
    "normalForm": "cnoi"
  },
  {
    "normalForm": "cnuchio",
    "id": 169
  },
  {
    "normalForm": "cocsa",
    "id": 170
  },
  {
    "normalForm": "codi",
    "id": 8,
    "translations": [ "to get up", "to rise" ]
  },
  {
    "normalForm": "coelio",
    "id": 171
  },
  {
    "normalForm": "cofio",
    "id": 172
  },
  {
    "normalForm": "cofnodi",
    "id": 173
  },
  {
    "normalForm": "coginio",
    "id": 20,
    "translations": [ "to cook" ]
  },
  {
    "normalForm": "colli",
    "id": 174
  },
  {
    "normalForm": "condemnio",
    "id": 175
  },
  {
    "normalForm": "copïo",
    "id": 176
  },
  {
    "normalForm": "corfflunio",
    "id": 177
  },
  {
    "normalForm": "cosbi",
    "id": 178
  },
  {
    "normalForm": "credu",
    "id": 179
  },
  {
    "normalForm": "cregynna",
    "id": 180
  },
  {
    "normalForm": "creu",
    "etymology": "From Latin creō",
    "id": 181
  },
  {
    "normalForm": "croeshoelio",
    "id": 182
  },
  {
    "normalForm": "croesholi",
    "id": 183
  },
  {
    "normalForm": "croesi",
    "id": 184
  },
  {
    "normalForm": "croestorri",
    "id": 185
  },
  {
    "normalForm": "cronni",
    "id": 186
  },
  {
    "normalForm": "crwydro",
    "id": 187
  },
  {
    "normalForm": "cryfhau",
    "id": 188
  },
  {
    "normalForm": "crymu",
    "id": 189
  },
  {
    "normalForm": "crynhoi",
    "id": 190
  },
  {
    "normalForm": "crynu",
    "id": 191
  },
  {
    "normalForm": "cuddio",
    "id": 192
  },
  {
    "normalForm": "curo",
    "id": 193
  },
  {
    "normalForm": "cusanu",
    "id": 194
  },
  {
    "normalForm": "cwblhau",
    "id": 195
  },
  {
    "normalForm": "cweryla",
    "id": 196
  },
  {
    "normalForm": "cwffio",
    "id": 197
  },
  {
    "normalForm": "cwpla",
    "id": 198
  },
  {
    "normalForm": "cwtsio",
    "id": 199
  },
  {
    "normalForm": "cwympo",
    "id": 200
  },
  {
    "normalForm": "cwyno",
    "id": 201
  },
  {
    "normalForm": "cychwyn",
    "id": 202
  },
  {
    "normalForm": "cyd-fynd",
    "id": 203
  },
  {
    "normalForm": "cyd-weld",
    "id": 204
  },
  {
    "normalForm": "cydgordio",
    "id": 205
  },
  {
    "normalForm": "cydnabod",
    "id": 206
  },
  {
    "normalForm": "cydosod",
    "id": 207
  },
  {
    "normalForm": "cydsynio",
    "id": 208
  },
  {
    "normalForm": "cydweithio",
    "id": 209
  },
  {
    "normalForm": "cydweithredu",
    "id": 210
  },
  {
    "normalForm": "cyf-weld",
    "id": 211
  },
  {
    "normalForm": "cyfamodi",
    "id": 212
  },
  {
    "normalForm": "cyfarch",
    "id": 213
  },
  {
    "normalForm": "cyfarfod",
    "id": 214
  },
  {
    "normalForm": "cyfarth",
    "id": 215
  },
  {
    "normalForm": "cyfarwyddo",
    "id": 216
  },
  {
    "normalForm": "cyfateb",
    "id": 217
  },
  {
    "normalForm": "cyfeirio",
    "id": 218
  },
  {
    "normalForm": "cyfiawnhau",
    "id": 219
  },
  {
    "normalForm": "cyfieithu",
    "id": 220
  },
  {
    "normalForm": "cyflafareddu",
    "id": 221
  },
  {
    "normalForm": "cyflawni",
    "id": 222
  },
  {
    "normalForm": "cyflogi",
    "id": 223
  },
  {
    "normalForm": "cyflwyno",
    "id": 224
  },
  {
    "normalForm": "cyfnewid",
    "id": 225
  },
  {
    "normalForm": "cyfodi",
    "id": 226
  },
  {
    "normalForm": "cyfosod",
    "id": 227
  },
  {
    "normalForm": "cyfrannu",
    "id": 228
  },
  {
    "normalForm": "cyfranogi",
    "id": 229
  },
  {
    "normalForm": "cyfrif",
    "id": 230
  },
  {
    "normalForm": "cyfrwyo",
    "id": 231
  },
  {
    "normalForm": "cyfryngu",
    "id": 239
  },
  {
    "normalForm": "cyfundrefnu",
    "id": 240
  },
  {
    "normalForm": "cyfuno",
    "id": 241
  },
  {
    "normalForm": "cyfweld",
    "id": 242
  },
  {
    "normalForm": "cyffwrdd",
    "id": 243
  },
  {
    "normalForm": "cyffyloca",
    "id": 244
  },
  {
    "normalForm": "cynghori",
    "id": 245
  },
  {
    "normalForm": "cyhoeddi",
    "id": 246
  },
  {
    "normalForm": "cyhuddo",
    "id": 247
  },
  {
    "normalForm": "cylchu",
    "id": 248
  },
  {
    "normalForm": "cymedroli",
    "id": 249
  },
  {
    "normalForm": "cymell",
    "id": 250
  },
  {
    "normalForm": "cymharu",
    "id": 251
  },
  {
    "normalForm": "cymhlethu",
    "id": 252
  },
  {
    "normalForm": "cymryd",
    "stem": "cymer",
    "id": 253
  },
  {
    "normalForm": "cymylu",
    "id": 254
  },
  {
    "normalForm": "cynaeafu",
    "id": 255
  },
  {
    "normalForm": "cynhenna",
    "id": 256
  },
  {
    "normalForm": "cynhennu",
    "id": 257
  },
  {
    "normalForm": "cynhesu",
    "id": 258
  },
  {
    "normalForm": "cynhyrchu",
    "id": 259
  },
  {
    "normalForm": "cynllunio",
    "id": 260
  },
  {
    "normalForm": "cynnal",
    "id": 261
  },
  {
    "normalForm": "cynnau",
    "id": 262
  },
  {
    "normalForm": "cynnig",
    "id": 263,
    "stem": "cynigi",
    "notes": "The stem in normal literary Welsh is cynig, while in colloquial it is cyningi. The one listed here is the colloquial version"
  },
  {
    "normalForm": "cynnull",
    "id": 264
  },
  {
    "normalForm": "cynnwys",
    "id": 265
  },
  {
    "normalForm": "cynorthwyo",
    "id": 266
  },
  {
    "normalForm": "cynrychioli",
    "id": 267
  },
  {
    "normalForm": "cynuta",
    "id": 268
  },
  {
    "normalForm": "cynyddu",
    "id": 269
  },
  {
    "normalForm": "cyrchu",
    "id": 270
  },
  {
    "normalForm": "cyrraedd",
    "id": 16,
    "translations": [ "to arrive", "to reach" ],
    "stem": "cyrhaedd"
  },
  {
    "normalForm": "cysgu",
    "id": 271
  },
  {
    "normalForm": "cystadlu",
    "id": 272
  },
  {
    "normalForm": "cysylltu",
    "id": 273
  },
  {
    "normalForm": "cytuno",
    "id": 274
  },
  {
    "normalForm": "chwalu",
    "id": 275
  },
  {
    "normalForm": "chwarae",
    "id": 276
  },
  {
    "normalForm": "chweina",
    "id": 277
  },
  {
    "normalForm": "chwenychu",
    "id": 278
  },
  {
    "normalForm": "chwerthin",
    "id": 279
  },
  {
    "normalForm": "chwilio",
    "id": 280
  },
  {
    "normalForm": "chwith-glicio",
    "id": 281
  },
  {
    "normalForm": "chwyddo",
    "id": 282
  },
  {
    "normalForm": "chwyrnu",
    "id": 283
  },
  {
    "normalForm": "chwythu",
    "id": 284
  },
  {
    "normalForm": "cyfoesi",
    "id": 791,
    "translations": [ "to be contemporaneous with" ]
  },
  {
    "normalForm": "cydgerdded",
    "id": 797,
    "translations": [ "to accompany" ]
  },
  {
    "normalForm": "clonio",
    "id": 808,
    "translations": [ "to clone" ]
  },
  {
    "normalForm": "cydlofnoda",
    "id": 811,
    "translations": [ "to co-sign" ]
  },
  {
    "normalForm": "corni",
    "id": 828,
    "translations": [ "to become hard" ]
  },
  {
    "normalForm": "cilwenu",
    "id": 843,
    "translations": [ "to smirk" ]
  },
  {
    "normalForm": "cywreinio",
    "id": 846,
    "translations": [ "to adorn" ]
  },
  {
    "normalForm": "coegio",
    "id": 848,
    "translations": [ "to cheat" ]
  },
  {
    "normalForm": "cydarwain",
    "stem": "cydarweini",
    "id": 853,
    "translations": [ "to lead jointly" ]
  },
  {
    "normalForm": "caethiwo",
    "stem": "caethi",
    "id": 856,
    "translations": [ "to imprison" ]
  },
  {
    "normalForm": "cyseinio",
    "id": 866,
    "translations": [ "to alliterate" ]
  },
  {
    "normalForm": "cyfeiliorni",
    "id": 886,
    "translations": [ "to stray" ]
  },
  {
    "normalForm": "cydraddol",
    "id": 890,
    "translations": [ "to equalise" ]
  },
  {
    "normalForm": "camfihafio",
    "id": 896,
    "translations": [ "to misbehave" ]
  },
  {
    "normalForm": "crochlefain",
    "stem": "crochlef",
    "id": 897,
    "translations": [ "to clamour" ]
  },
  {
    "normalForm": "cornelu",
    "id": 900,
    "translations": [ "to corner" ]
  },
  {
    "normalForm": "ciprys",
    "id": 901,
    "translations": [ "to contend" ]
  },
  {
    "normalForm": "conach",
    "id": 905,
    "translations": [ "to grumble" ]
  },
  {
    "normalForm": "cydredeg",
    "id": 911,
    "translations": [ "to coincide" ]
  },
  {
    "normalForm": "cynddeiriogi",
    "id": 920,
    "translations": [ "to enrage" ]
  },
  {
    "normalForm": "cyfrodeddu",
    "id": 923,
    "translations": [ "to entwine" ]
  },
  {
    "normalForm": "cynghraffu",
    "id": 925,
    "translations": [ "to clutch" ]
  },
  {
    "normalForm": "cyfog",
    "id": 926,
    "translations": [ "to vomit" ]
  },
  {
    "normalForm": "cyneddfu",
    "id": 928,
    "translations": [ "to judge competent" ]
  },
  {
    "normalForm": "cycyllu",
    "id": 930,
    "translations": [ "to hood" ]
  },
  {
    "normalForm": "ceincio",
    "id": 944,
    "translations": [ "to spread out" ]
  },
  {
    "normalForm": "cyfro",
    "id": 948,
    "translations": [ "to cover" ]
  },
  {
    "normalForm": "calibro",
    "id": 958,
    "translations": [ "to calibrate" ]
  },
  {
    "normalForm": "cydseinio",
    "id": 961,
    "translations": [ "to harmonise" ]
  },
  {
    "normalForm": "camarwain",
    "stem": "camarweini",
    "id": 971,
    "translations": [ "to mislead" ]
  },
  {
    "normalForm": "cydleoli",
    "id": 978,
    "translations": [ "to colocate" ]
  },
  {
    "normalForm": "crosio",
    "id": 986,
    "translations": [ "to crochet" ]
  },
  {
    "normalForm": "culhau",
    "stem": "culhe",
    "id": 999,
    "translations": [ "to narrow" ]
  },
  {
    "normalForm": "cydgasglu",
    "stem": "cydgesgl",
    "id": 1010,
    "translations": [ "to gather together" ]
  },
  {
    "normalForm": "camsillafu",
    "stem": "camsillef",
    "id": 1016,
    "translations": [ "to mis-spell" ]
  },
  {
    "normalForm": "cramennu",
    "id": 1019,
    "translations": [ "to ulcerate" ]
  },
  {
    "normalForm": "canslio",
    "id": 1021,
    "translations": [ "to cancel" ]
  },
  {
    "normalForm": "croniclo",
    "id": 1028,
    "translations": [ "to chronicle" ]
  },
  {
    "normalForm": "cyfreithloni",
    "id": 1033,
    "translations": [ "to legalise" ]
  },
  {
    "normalForm": "cyfarparu",
    "stem": "cyfarper",
    "id": 1034,
    "translations": [ "to prepare" ]
  },
  {
    "normalForm": "clincio",
    "id": 1035,
    "translations": [ "to clink" ]
  },
  {
    "normalForm": "cyfori",
    "id": 1036,
    "translations": [ "to cover" ]
  },
  {
    "normalForm": "clampio",
    "id": 1038,
    "translations": [ "to clamp" ]
  },
  {
    "normalForm": "cordio",
    "id": 1040,
    "translations": [ "to cord" ]
  },
  {
    "normalForm": "cydymdrechu",
    "id": 1042,
    "translations": [ "to make a united effort" ]
  },
  {
    "normalForm": "corganu",
    "id": 1066,
    "translations": [ "to chant" ]
  },
  {
    "normalForm": "cadeirio",
    "id": 1069,
    "translations": [ "to chair" ]
  },
  {
    "normalForm": "chwisgio",
    "id": 1070,
    "translations": [ "to whisk" ]
  },
  {
    "normalForm": "cysuro",
    "id": 1071,
    "translations": [ "to comfort" ]
  },
  {
    "normalForm": "cwrnad",
    "id": 1074,
    "translations": [ "to nag" ]
  },
  {
    "normalForm": "crynhoaf",
    "id": 1075,
    "translations": [ "to summarise" ]
  },
  {
    "normalForm": "cydgeisio",
    "id": 1083,
    "translations": [ "to compete" ]
  },
  {
    "normalForm": "cwnsela",
    "id": 1094,
    "translations": [ "to counsel" ]
  },
  {
    "normalForm": "cerflunio",
    "id": 1095,
    "translations": [ "to sculpt" ]
  },
  {
    "normalForm": "crewtio",
    "id": 1114,
    "translations": [ "to whine" ]
  },
  {
    "normalForm": "clybio",
    "id": 1116,
    "translations": [ "to club" ]
  },
  {
    "normalForm": "cwrdd",
    "id": 1122,
    "translations": [ "to meet" ]
  },
  {
    "normalForm": "carcu",
    "id": 1130,
    "translations": [ "to take heed" ]
  },
  {
    "normalForm": "camdybio",
    "id": 1137,
    "translations": [ "to mistake" ]
  },
  {
    "normalForm": "cyfogi",
    "stem": "cyfogi",
    "id": 1168,
    "translations": [ "to vomit" ]
  },
  {
    "normalForm": "chwiwladrata",
    "id": 1181,
    "translations": [ "to pilfer" ]
  },
  {
    "normalForm": "cydbwrcasu",
    "id": 1182,
    "translations": [ "to purchase jointly" ]
  },
  {
    "normalForm": "camgoelio",
    "id": 1189,
    "translations": [ "to believe wrongly" ]
  },
  {
    "normalForm": "camddehongli",
    "id": 1190,
    "translations": [ "to misinterpret" ]
  },
  {
    "normalForm": "clunhecio",
    "id": 1194,
    "translations": [ "to hobble" ]
  },
  {
    "normalForm": "cydystyrio",
    "id": 1201,
    "translations": [ "to deliberate jointly" ]
  },
  {
    "normalForm": "chwiban",
    "id": 1212,
    "translations": [ "to whistle" ]
  },
  {
    "normalForm": "camgyfarwyddo",
    "id": 1216,
    "translations": [ "to mislead" ]
  },
  {
    "normalForm": "cigweinio",
    "id": 1222,
    "translations": [ "to shred" ]
  },
  {
    "normalForm": "caroli",
    "id": 1227,
    "translations": [ "to carol" ]
  },
  {
    "normalForm": "clafeiddio",
    "id": 1234,
    "translations": [ "to sicken" ]
  },
  {
    "normalForm": "cipedrych",
    "id": 1238,
    "translations": [ "to peep" ]
  },
  {
    "normalForm": "clensio",
    "id": 1244,
    "translations": [ "to clench" ]
  },
  {
    "normalForm": "corddi",
    "id": 1252
  },
  {
    "normalForm": "collfarnu",
    "stem": "collfern",
    "id": 1254,
    "translations": [ "to convict" ]
  },
  {
    "normalForm": "cydsefydlu",
    "id": 1257,
    "translations": [ "to establish jointly" ]
  },
  {
    "normalForm": "cilwgu",
    "id": 1266,
    "translations": [ "to scowl" ]
  },
  {
    "normalForm": "carcharu",
    "stem": "carcher",
    "id": 1267,
    "translations": [ "to imprison" ]
  },
  {
    "normalForm": "cyfeddiannu",
    "id": 1271,
    "translations": [ "to annex" ]
  },
  {
    "normalForm": "crochweiddi",
    "id": 1274,
    "translations": [ "to shout" ]
  },
  {
    "normalForm": "camacennu",
    "id": 1280,
    "translations": [ "to mispronounce" ]
  },
  {
    "normalForm": "cyndynnu",
    "id": 1281,
    "translations": [ "to act stubbornly" ]
  },
  {
    "normalForm": "chwyrlïo",
    "stem": "chwyrli",
    "id": 1283,
    "translations": [ "to whirl" ]
  },
  {
    "normalForm": "cyfannu",
    "id": 1284,
    "translations": [ "to integrate" ]
  },
  {
    "normalForm": "clof",
    "id": 1287,
    "translations": [ "to lock" ]
  },
  {
    "normalForm": "cochli",
    "id": 1291,
    "translations": [ "to cloak" ]
  },
  {
    "normalForm": "crygleisio",
    "id": 1296,
    "translations": [ "to speak hoarsely" ]
  },
  {
    "normalForm": "cwmpasu",
    "id": 1302,
    "translations": [ "to surround" ]
  },
  {
    "normalForm": "cydfynd",
    "id": 1303,
    "translations": [ "to accompany" ]
  },
  {
    "normalForm": "cyfanheddu",
    "id": 1305,
    "translations": [ "to inhabit" ]
  },
  {
    "normalForm": "criwsio",
    "id": 1306,
    "translations": [ "to cruise" ]
  },
  {
    "normalForm": "cloddio",
    "id": 1309,
    "translations": [ "to mine" ]
  },
  {
    "normalForm": "cymrodeddu",
    "id": 1314,
    "translations": [ "to arbitrate" ]
  },
  {
    "normalForm": "cydfonitro",
    "id": 1319,
    "translations": [ "to monitor jointly" ]
  },
  {
    "normalForm": "clafychu",
    "id": 1325,
    "translations": [ "to sicken" ]
  },
  {
    "normalForm": "cynio",
    "id": 1327,
    "translations": [ "to gouge" ]
  },
  {
    "normalForm": "clebran",
    "id": 1338,
    "translations": [ "to prattle" ]
  },
  {
    "normalForm": "contractio",
    "id": 1339,
    "translations": [ "to contract" ]
  },
  {
    "normalForm": "cyfeiriannu",
    "id": 1340,
    "translations": [ "to orienteer" ]
  },
  {
    "normalForm": "cyffio",
    "id": 1341,
    "translations": [ "to become stiff" ]
  },
  {
    "normalForm": "cilgnoi",
    "stem": "cilgnois",
    "id": 1346,
    "translations": [ "to ruminate" ]
  },
  {
    "normalForm": "cydymgynghori",
    "id": 1349,
    "translations": [ "to consult together" ]
  },
  {
    "normalForm": "crino",
    "id": 1360,
    "translations": [ "to wither" ]
  },
  {
    "normalForm": "colbio",
    "id": 1363,
    "translations": [ "to thrash" ]
  },
  {
    "normalForm": "canwyro",
    "id": 1368,
    "translations": [ "to plane" ]
  },
  {
    "normalForm": "clicio",
    "id": 1369,
    "translations": [ "to click" ]
  },
  {
    "normalForm": "crintachu",
    "id": 1372,
    "translations": [ "to become miserly" ]
  },
  {
    "normalForm": "cneua",
    "id": 1373,
    "translations": [ "to gather nuts" ]
  },
  {
    "normalForm": "cneuo",
    "id": 1384,
    "translations": [ "to gather nuts" ]
  },
  {
    "normalForm": "cyfeddach",
    "id": 1386,
    "translations": [ "to feast" ]
  },
  {
    "normalForm": "cywasgu",
    "stem": "cywesg",
    "id": 1387,
    "translations": [ "to compress" ]
  },
  {
    "normalForm": "cytundebu",
    "id": 1401,
    "translations": [ "to make a pact" ]
  },
  {
    "normalForm": "cymysgu",
    "id": 1406,
    "translations": [ "to mix" ]
  },
  {
    "normalForm": "cyniweirio",
    "id": 1411,
    "translations": [ "to frequent" ]
  },
  {
    "normalForm": "cartrefu",
    "id": 1416,
    "translations": [ "to inhabit" ]
  },
  {
    "normalForm": "canslo",
    "id": 1422,
    "translations": [ "to cancel" ]
  },
  {
    "normalForm": "campio",
    "id": 1424,
    "translations": [ "to camp" ]
  },
  {
    "normalForm": "crybwyll",
    "stem": "crybwyll",
    "id": 1433,
    "translations": [ "to mention" ]
  },
  {
    "normalForm": "cydymffurfio",
    "id": 1436,
    "translations": [ "to conform" ]
  },
  {
    "normalForm": "ceintach",
    "id": 1443,
    "translations": [ "to grumble" ]
  },
  {
    "normalForm": "clwcian",
    "id": 1448,
    "translations": [ "to cluck" ]
  },
  {
    "normalForm": "cydladd",
    "stem": "cydledd",
    "id": 1451,
    "translations": [ "to agree" ]
  },
  {
    "normalForm": "chwennych",
    "stem": "chwenych",
    "id": 1452,
    "translations": [ "to desire" ]
  },
  {
    "normalForm": "clegru",
    "id": 1454,
    "translations": [ "to tattle" ]
  },
  {
    "normalForm": "conffyrmio",
    "id": 1456,
    "translations": [ "to confirm" ]
  },
  {
    "normalForm": "cydlawenhau",
    "stem": "cydlawenhe",
    "id": 1462,
    "translations": [ "to rejoice jointly" ]
  },
  {
    "normalForm": "catrodi",
    "id": 1471,
    "translations": [ "to form into regiments" ]
  },
  {
    "normalForm": "casino",
    "id": 1478,
    "translations": [ "to hate" ]
  },
  {
    "normalForm": "cydfodoli",
    "id": 1481,
    "translations": [ "to co-exist" ]
  },
  {
    "normalForm": "calonogi",
    "id": 1488,
    "translations": [ "to encourage" ]
  },
  {
    "normalForm": "cynefino",
    "id": 1489,
    "translations": [ "to become accustomed" ]
  },
  {
    "normalForm": "caddugo",
    "id": 1497,
    "translations": [ "to darken" ]
  },
  {
    "normalForm": "carfio",
    "id": 1500,
    "translations": [ "to carve" ]
  },
  {
    "normalForm": "cyfangu",
    "id": 1501,
    "translations": [ "to contract" ]
  },
  {
    "normalForm": "capio",
    "id": 1510,
    "translations": [ "to cap" ]
  },
  {
    "normalForm": "camdreiglo",
    "id": 1515,
    "translations": [ "to mismutate" ]
  },
  {
    "normalForm": "clepio",
    "id": 1520,
    "translations": [ "to tattle" ]
  },
  {
    "normalForm": "cnecio",
    "id": 1531,
    "translations": [ "to jar" ]
  },
  {
    "normalForm": "carpedu",
    "id": 1535,
    "translations": [ "to carpet" ]
  },
  {
    "normalForm": "cripio",
    "id": 1537,
    "translations": [ "to creep" ]
  },
  {
    "normalForm": "crasu",
    "id": 1539,
    "translations": [ "to bake" ]
  },
  {
    "normalForm": "clapian",
    "id": 1542,
    "translations": [ "to tell tales" ]
  },
  {
    "normalForm": "colato",
    "id": 1543,
    "translations": [ "to collate" ]
  },
  {
    "normalForm": "cwyro",
    "id": 1551,
    "translations": [ "to polish" ]
  },
  {
    "normalForm": "cyfetholi",
    "id": 1554,
    "translations": [ "to co-opt" ]
  },
  {
    "normalForm": "cyfieuo",
    "id": 1559,
    "translations": [ "to yoke" ]
  },
  {
    "normalForm": "celwyddo",
    "id": 1560
  },
  {
    "normalForm": "cnithio",
    "id": 1566,
    "translations": [ "to tap" ]
  },
  {
    "normalForm": "cidnapio",
    "id": 1584,
    "translations": [ "to kidnap" ]
  },
  {
    "normalForm": "cawlio",
    "id": 1585,
    "translations": [ "to confuse" ]
  },
  {
    "normalForm": "corfannu",
    "stem": "corfenn",
    "id": 1588,
    "translations": [ "to scan" ]
  },
  {
    "normalForm": "callio",
    "id": 1594,
    "translations": [ "to get wiser" ]
  },
  {
    "normalForm": "cyfarchu",
    "stem": "cyferch",
    "id": 1632,
    "translations": [ "to hail" ]
  },
  {
    "normalForm": "carlamu",
    "id": 1636,
    "translations": [ "to gallop" ]
  },
  {
    "normalForm": "corcio",
    "id": 1640,
    "translations": [ "to cork" ]
  },
  {
    "normalForm": "cyfeilyddio",
    "id": 1643,
    "translations": [ "to accompany" ]
  },
  {
    "normalForm": "cipio",
    "id": 1646,
    "translations": [ "to snatch" ]
  },
  {
    "normalForm": "cyfanhau",
    "stem": "cyfanhe",
    "id": 1653,
    "translations": [ "to unite" ]
  },
  {
    "normalForm": "cydgysylltu",
    "id": 1654,
    "translations": [ "to coordinate" ]
  },
  {
    "normalForm": "cerfio",
    "id": 1675,
    "translations": [ "to carve" ]
  },
  {
    "normalForm": "cynllwynio",
    "stem": "cynllwyn",
    "id": 1676,
    "translations": [ "to scheme" ]
  },
  {
    "normalForm": "controlio",
    "id": 1690,
    "translations": [ "to control" ]
  },
  {
    "normalForm": "cwestiynu",
    "id": 1700,
    "translations": [ "to question" ]
  },
  {
    "normalForm": "cyn-gofrestru",
    "stem": "cyngofrestr",
    "id": 1704,
    "translations": [ "to preregister" ]
  },
  {
    "normalForm": "crensian",
    "id": 1717,
    "translations": [ "to crunch" ]
  },
  {
    "normalForm": "cleimio",
    "id": 1724,
    "translations": [ "to claim" ]
  },
  {
    "normalForm": "cydaddysgu",
    "id": 1727,
    "translations": [ "to co-educate" ]
  },
  {
    "normalForm": "crebachu",
    "id": 1733,
    "translations": [ "to shrivel" ]
  },
  {
    "normalForm": "crafu",
    "id": 1738,
    "translations": [ "to scratch" ]
  },
  {
    "normalForm": "cythruddo",
    "id": 1739,
    "translations": [ "to provoke" ]
  },
  {
    "normalForm": "celcu",
    "id": 1747,
    "translations": [ "to conceal" ]
  },
  {
    "normalForm": "clwcio",
    "id": 1759,
    "translations": [ "to cluck" ]
  },
  {
    "normalForm": "cedenu",
    "id": 1763,
    "translations": [ "to nap cloth" ]
  },
  {
    "normalForm": "cynnu",
    "id": 1768,
    "translations": [ "to light" ]
  },
  {
    "normalForm": "chwilmanta",
    "id": 1771,
    "translations": [ "to search" ]
  },
  {
    "normalForm": "cripan",
    "id": 1777,
    "translations": [ "to creep" ]
  },
  {
    "normalForm": "clochdar",
    "id": 1778,
    "translations": [ "to cluck" ]
  },
  {
    "normalForm": "cnawdoli",
    "id": 1779,
    "translations": [ "to incarnate" ]
  },
  {
    "normalForm": "coladu",
    "id": 1799,
    "translations": [ "to collate" ]
  },
  {
    "normalForm": "clocsio",
    "id": 1811,
    "translations": [ "to clatter" ]
  },
  {
    "normalForm": "carafanio",
    "id": 1814,
    "translations": [ "to caravan" ]
  },
  {
    "normalForm": "crinellu",
    "id": 1823,
    "translations": [ "to become brittle" ]
  },
  {
    "normalForm": "calcio",
    "id": 1824,
    "translations": [ "to caulk" ]
  },
  {
    "normalForm": "crecio",
    "id": 1831,
    "translations": [ "to cackle" ]
  },
  {
    "normalForm": "calchu",
    "stem": "celch",
    "id": 1832,
    "translations": [ "to lime" ]
  },
  {
    "normalForm": "corffori",
    "id": 1834,
    "translations": [ "to embody" ]
  },
  {
    "normalForm": "crynio",
    "id": 1852,
    "translations": [ "to round" ]
  },
  {
    "normalForm": "cega",
    "id": 1858,
    "translations": [ "to mouth" ]
  },
  {
    "normalForm": "cydgomisiynu",
    "id": 1862,
    "translations": [ "to commission jointly" ]
  },
  {
    "normalForm": "cefnu",
    "id": 1868,
    "translations": [ "to turn your back on" ]
  },
  {
    "normalForm": "cerddetan",
    "stem": "cerddetan",
    "id": 1877,
    "translations": [ "to stroll" ]
  },
  {
    "normalForm": "cydgynnull",
    "stem": "cydgynnulli",
    "id": 1880,
    "translations": [ "to gather together" ]
  },
  {
    "normalForm": "cydserennu",
    "id": 1883,
    "translations": [ "to co-star" ]
  },
  {
    "normalForm": "cwtanu",
    "id": 1892,
    "translations": [ "to shorten" ]
  },
  {
    "normalForm": "crugo",
    "id": 1896,
    "translations": [ "to pile up" ]
  },
  {
    "normalForm": "cegu",
    "id": 1907,
    "translations": [ "to gulp" ]
  },
  {
    "normalForm": "cyfebu",
    "id": 1908,
    "translations": [ "to conceive" ]
  },
  {
    "normalForm": "chwipio",
    "id": 1909,
    "translations": [ "to whip" ]
  },
  {
    "normalForm": "chwistrellu",
    "id": 1915,
    "translations": [ "to spray" ]
  },
  {
    "normalForm": "chwedleua",
    "id": 1923,
    "translations": [ "to speak" ]
  },
  {
    "normalForm": "consurio",
    "id": 1927,
    "translations": [ "to conjure" ]
  },
  {
    "normalForm": "cochi",
    "id": 1929,
    "translations": [ "to blush" ]
  },
  {
    "normalForm": "cynysgaeddu",
    "id": 1933,
    "translations": [ "to endow" ]
  },
  {
    "normalForm": "cyrydu",
    "id": 1940,
    "translations": [ "to corrode" ]
  },
  {
    "normalForm": "cynyrchioli",
    "id": 1948,
    "translations": [ "to represent" ]
  },
  {
    "normalForm": "camrifo",
    "id": 1952,
    "translations": [ "to miscount" ]
  },
  {
    "normalForm": "clystyru",
    "id": 1968,
    "translations": [ "to cluster" ]
  },
  {
    "normalForm": "cocio",
    "id": 1971,
    "translations": [ "to cock" ]
  },
  {
    "normalForm": "cribinio",
    "id": 1983,
    "translations": [ "to rake" ]
  },
  {
    "normalForm": "cydfeddiannu",
    "stem": "cydfeddienn",
    "id": 1984,
    "translations": [ "to possess in common" ]
  },
  {
    "normalForm": "caboli",
    "id": 1989,
    "translations": [ "to shine" ]
  },
  {
    "normalForm": "caregu",
    "id": 2003,
    "translations": [ "to petrify" ]
  },
  {
    "normalForm": "cydrannu",
    "stem": "cydrenn",
    "id": 2006,
    "translations": [ "to divide" ]
  },
  {
    "normalForm": "crapio",
    "id": 2014,
    "translations": [ "to grasp" ]
  },
  {
    "normalForm": "cablu",
    "stem": "cebl",
    "id": 2021,
    "translations": [ "to blaspheme" ]
  },
  {
    "normalForm": "cyffelybu",
    "id": 2030,
    "translations": [ "to compare" ]
  },
  {
    "normalForm": "cwtio",
    "id": 2034,
    "translations": [ "to curtail" ]
  },
  {
    "normalForm": "cydlafurio",
    "id": 2036,
    "translations": [ "to work jointly" ]
  },
  {
    "normalForm": "claearu",
    "id": 2047,
    "translations": [ "to become lukewarm" ]
  },
  {
    "normalForm": "chwalpio",
    "id": 2050,
    "translations": [ "to butcher" ]
  },
  {
    "normalForm": "cydweddu",
    "id": 2056,
    "translations": [ "to conform" ]
  },
  {
    "normalForm": "chwaethu",
    "id": 2068,
    "translations": [ "to savour" ]
  },
  {
    "normalForm": "coddi",
    "id": 2071,
    "translations": [ "to anger" ]
  },
  {
    "normalForm": "camamseru",
    "id": 2075,
    "translations": [ "to mistime" ]
  },
  {
    "normalForm": "cnocellu",
    "id": 2078,
    "translations": [ "to peck" ]
  },
  {
    "normalForm": "cynghreirio",
    "id": 2081,
    "translations": [ "to ally" ]
  },
  {
    "normalForm": "cwcio",
    "id": 2097,
    "translations": [ "to cook" ]
  },
  {
    "normalForm": "croesbostio",
    "id": 2098,
    "translations": [ "to crosspost" ]
  },
  {
    "normalForm": "celcio",
    "id": 2108,
    "translations": [ "to conceal" ]
  },
  {
    "normalForm": "camdaflu",
    "stem": "camdefl",
    "id": 2113,
    "translations": [ "to foul throw" ]
  },
  {
    "normalForm": "creithio",
    "id": 2115,
    "translations": [ "to scar" ]
  },
  {
    "normalForm": "cofftio",
    "id": 2118,
    "translations": [ "to quaff" ]
  },
  {
    "normalForm": "creffynnu",
    "id": 2125,
    "translations": [ "to bind" ]
  },
  {
    "normalForm": "cyfoethogi",
    "id": 2139,
    "translations": [ "to enrich" ]
  },
  {
    "normalForm": "cydystyried",
    "id": 2144,
    "translations": [ "to deliberate jointly" ]
  },
  {
    "normalForm": "clocio",
    "id": 2148,
    "translations": [ "to clock" ]
  },
  {
    "normalForm": "cyffeithio",
    "id": 2153,
    "translations": [ "to pickle" ]
  },
  {
    "normalForm": "cyfatal",
    "stem": "cyfatel",
    "id": 2154,
    "translations": [ "to support" ]
  },
  {
    "normalForm": "cwpelu",
    "id": 2156,
    "translations": [ "to purify" ]
  },
  {
    "normalForm": "cryffâf",
    "id": 2157,
    "translations": [ "to strengthen" ]
  },
  {
    "normalForm": "cyffroi",
    "stem": "cyffrois",
    "id": 2158,
    "translations": [ "to excite" ]
  },
  {
    "normalForm": "cydaddoli",
    "id": 2164,
    "translations": [ "to co-worship" ]
  },
  {
    "normalForm": "cyniwair",
    "stem": "cyniweiri",
    "id": 2183,
    "translations": [ "to frequent" ]
  },
  {
    "normalForm": "cynllyfanu",
    "id": 2185,
    "translations": [ "to leash" ]
  },
  {
    "normalForm": "coedio",
    "id": 2190,
    "translations": [ "to construct timberwork" ]
  },
  {
    "normalForm": "cydfyw",
    "stem": "cydfywi",
    "id": 2194,
    "translations": [ "to live together" ]
  },
  {
    "normalForm": "cnydio",
    "id": 2202,
    "translations": [ "to bear fruit" ]
  },
  {
    "normalForm": "cyplysu",
    "id": 2215,
    "translations": [ "to couple" ]
  },
  {
    "normalForm": "cydgyfranogi",
    "id": 2223,
    "translations": [ "to participate" ]
  },
  {
    "normalForm": "cogrdroi",
    "stem": "cogrdrois",
    "id": 2225,
    "translations": [ "to spin" ]
  },
  {
    "normalForm": "creisioni",
    "id": 2229,
    "translations": [ "to burn to ashes" ]
  },
  {
    "normalForm": "cyfamseru",
    "id": 2233,
    "translations": [ "to synchronise" ]
  },
  {
    "normalForm": "corlannu",
    "stem": "corlenn",
    "id": 2247,
    "translations": [ "to pen" ]
  },
  {
    "normalForm": "cwco",
    "id": 2249,
    "translations": [ "to cook" ]
  },
  {
    "normalForm": "cloriannu",
    "stem": "clorienn",
    "id": 2251,
    "translations": [ "to balance" ]
  },
  {
    "normalForm": "cyflenwi",
    "stem": "cyflen",
    "id": 2255,
    "translations": [ "to supply" ]
  },
  {
    "normalForm": "cydolygu",
    "id": 2259,
    "translations": [ "to edit jointly" ]
  },
  {
    "normalForm": "cydamseru",
    "id": 2265,
    "translations": [ "to synchronise" ]
  },
  {
    "normalForm": "cwato",
    "id": 2267,
    "translations": [ "to hide" ]
  },
  {
    "normalForm": "cydffurfio",
    "id": 2271,
    "translations": [ "to conform" ]
  },
  {
    "normalForm": "cropian",
    "id": 2285,
    "translations": [ "to crawl" ]
  },
  {
    "normalForm": "cyfaddef",
    "id": 2286,
    "translations": [ "to admit" ]
  },
  {
    "normalForm": "comitio",
    "id": 2297
  },
  {
    "normalForm": "cydbenderfynu",
    "id": 2298,
    "translations": [ "to decide together" ]
  },
  {
    "normalForm": "cynadledda",
    "id": 2312,
    "translations": [ "to attend conferences" ]
  },
  {
    "normalForm": "cropiaf",
    "id": 2318,
    "translations": [ "to crawl" ]
  },
  {
    "normalForm": "cloncio",
    "id": 2320,
    "translations": [ "to clank" ]
  },
  {
    "normalForm": "cynadleddu",
    "id": 2321,
    "translations": [ "to confer" ]
  },
  {
    "normalForm": "cyplu",
    "id": 2322,
    "translations": [ "to couple" ]
  },
  {
    "normalForm": "croesawu",
    "stem": "croesa",
    "id": 2327,
    "translations": [ "to welcome" ]
  },
  {
    "normalForm": "carfanu",
    "id": 2341,
    "translations": [ "to rail" ]
  },
  {
    "normalForm": "cydgefnogi",
    "id": 2359,
    "translations": [ "to support jointly" ]
  },
  {
    "normalForm": "canfasio",
    "id": 2361,
    "translations": [ "to canvass" ]
  },
  {
    "normalForm": "cydsefyll",
    "stem": "cydsaf",
    "id": 2363,
    "translations": [ "to be compatible" ]
  },
  {
    "normalForm": "cydweled",
    "id": 2366,
    "translations": [ "to agree" ]
  },
  {
    "normalForm": "carboneiddio",
    "id": 2372,
    "translations": [ "to carbonise" ]
  },
  {
    "normalForm": "cecian",
    "id": 2373,
    "translations": [ "to stutter" ]
  },
  {
    "normalForm": "cropio",
    "id": 2376
  },
  {
    "normalForm": "cylchdroi",
    "stem": "cylchdrois",
    "id": 2377,
    "translations": [ "to rotate" ]
  },
  {
    "normalForm": "cydgyllido",
    "id": 2378,
    "translations": [ "to finance jointly" ]
  },
  {
    "normalForm": "cwestio",
    "id": 2385,
    "translations": [ "to hold an inquiry" ]
  },
  {
    "normalForm": "cwrso",
    "id": 2388,
    "translations": [ "to chase" ]
  },
  {
    "normalForm": "crydio",
    "id": 2403,
    "translations": [ "to tremble" ]
  },
  {
    "normalForm": "cyfrddwyn",
    "stem": "cyfrddyg",
    "id": 2408,
    "translations": [ "to remove entirely" ]
  },
  {
    "normalForm": "cysylltnodi",
    "id": 2432,
    "translations": [ "to hyphenate" ]
  },
  {
    "normalForm": "cyfloi",
    "stem": "cyflois",
    "id": 2443,
    "translations": [ "to impregnate" ]
  },
  {
    "normalForm": "cyfaddodi",
    "id": 2451,
    "translations": [ "to compromise" ]
  },
  {
    "normalForm": "carpu",
    "id": 2452,
    "translations": [ "to tear" ]
  },
  {
    "normalForm": "cydymddwyn",
    "stem": "cydymddyg",
    "id": 2454,
    "translations": [ "to tolerate" ]
  },
  {
    "normalForm": "cyfrifiaduro",
    "id": 2466,
    "translations": [ "to computerise" ]
  },
  {
    "normalForm": "cyfodli",
    "id": 2467,
    "translations": [ "to rhyme with" ]
  },
  {
    "normalForm": "camliwio",
    "id": 2475,
    "translations": [ "to misrepresent" ]
  },
  {
    "normalForm": "cyfathrach",
    "id": 2480,
    "translations": [ "to mix" ]
  },
  {
    "normalForm": "cildremio",
    "id": 2481,
    "translations": [ "to glance" ]
  },
  {
    "normalForm": "crisialu",
    "id": 2487,
    "translations": [ "to crystallise" ]
  },
  {
    "normalForm": "camsefyll",
    "stem": "camsaf",
    "id": 2488,
    "translations": [ "to stand in the wrong place" ]
  },
  {
    "normalForm": "ceibio",
    "id": 2500,
    "translations": [ "to hack" ]
  },
  {
    "normalForm": "cydletya",
    "id": 2502,
    "translations": [ "to lodge together" ]
  },
  {
    "normalForm": "clustfeinio",
    "id": 2507,
    "translations": [ "to listen hard" ]
  },
  {
    "normalForm": "cyd-drefnu",
    "id": 2513,
    "translations": [ "to arrange jointly" ]
  },
  {
    "normalForm": "cymathu",
    "id": 2523,
    "translations": [ "to assimilate" ]
  },
  {
    "normalForm": "chwynnu",
    "id": 2525,
    "translations": [ "to weed" ]
  },
  {
    "normalForm": "cyfeilio",
    "id": 2526,
    "translations": [ "to accompany" ]
  },
  {
    "normalForm": "camdreulio",
    "id": 2535,
    "translations": [ "to squander" ]
  },
  {
    "normalForm": "cwynfanu",
    "id": 2536,
    "translations": [ "to complain" ]
  },
  {
    "normalForm": "cymynu",
    "id": 2542,
    "translations": [ "to fell" ]
  },
  {
    "normalForm": "cyflunio",
    "id": 2543,
    "translations": [ "to configure" ]
  },
  {
    "normalForm": "cydgrynhoi",
    "stem": "cydgrynhois",
    "id": 2545,
    "translations": [ "to gather together" ]
  },
  {
    "normalForm": "cydweu",
    "id": 2546,
    "translations": [ "to interlace" ]
  },
  {
    "normalForm": "crynhau",
    "stem": "crynhe",
    "id": 2551,
    "translations": [ "to become round" ]
  },
  {
    "normalForm": "cartio",
    "id": 2553,
    "translations": [ "to cart" ]
  },
  {
    "normalForm": "carthu",
    "id": 2561,
    "translations": [ "to muck out" ]
  },
  {
    "normalForm": "cablach",
    "id": 2580,
    "translations": [ "to gabble" ]
  },
  {
    "normalForm": "cofiannu",
    "stem": "cofienn",
    "id": 2585,
    "translations": [ "to write a memoir" ]
  },
  {
    "normalForm": "cyfleu",
    "id": 2598,
    "translations": [ "to imply" ]
  },
  {
    "normalForm": "cilgwthio",
    "id": 2601,
    "translations": [ "to repel" ]
  },
  {
    "normalForm": "cyfnerthu",
    "id": 2603,
    "translations": [ "to reinforce" ]
  },
  {
    "normalForm": "cennu",
    "id": 2604,
    "translations": [ "to grow scaly" ]
  },
  {
    "normalForm": "cyferbynnu",
    "stem": "cyferbyni",
    "id": 2606,
    "translations": [ "to contrast" ]
  },
  {
    "normalForm": "cylchlythyru",
    "id": 2613,
    "translations": [ "to circularise" ]
  },
  {
    "normalForm": "cyfoedi",
    "id": 2622,
    "translations": [ "to be contemporaneous with" ]
  },
  {
    "normalForm": "cloffrwymo",
    "id": 2624,
    "translations": [ "to fetter" ]
  },
  {
    "normalForm": "cloffrwymu",
    "id": 2627,
    "translations": [ "to impede" ]
  },
  {
    "normalForm": "closio",
    "id": 2628,
    "translations": [ "to draw close" ]
  },
  {
    "normalForm": "cydlynu",
    "id": 2635,
    "translations": [ "to cohere" ]
  },
  {
    "normalForm": "cydganu",
    "stem": "cydgen",
    "id": 2640,
    "translations": [ "to sing together" ]
  },
  {
    "normalForm": "canghennu",
    "id": 2645,
    "translations": [ "to branch" ]
  },
  {
    "normalForm": "cystwyo",
    "id": 2648,
    "translations": [ "to chastise" ]
  },
  {
    "normalForm": "casaf",
    "id": 2651,
    "translations": [ "to hate" ]
  },
  {
    "normalForm": "cynhinio",
    "id": 2672,
    "translations": [ "to rend" ]
  },
  {
    "normalForm": "camgredu",
    "id": 2679,
    "translations": [ "to believe wrongly" ]
  },
  {
    "normalForm": "crychio",
    "id": 2687,
    "translations": [ "to wrinkle" ]
  },
  {
    "normalForm": "cydadrodd",
    "id": 2689,
    "translations": [ "to recite together" ]
  },
  {
    "normalForm": "coethi",
    "id": 2691,
    "translations": [ "to purify" ]
  },
  {
    "normalForm": "corffoli",
    "id": 2714,
    "translations": [ "to embody" ]
  },
  {
    "normalForm": "chwarteru",
    "id": 2724,
    "translations": [ "to quarter" ]
  },
  {
    "normalForm": "camfarnu",
    "stem": "camfern",
    "id": 2727,
    "translations": [ "to misjudge" ]
  },
  {
    "normalForm": "craffu",
    "stem": "creff",
    "id": 2732,
    "translations": [ "to grasp" ]
  },
  {
    "normalForm": "cydymdeimlo",
    "id": 2739,
    "translations": [ "to sympathise" ]
  },
  {
    "normalForm": "cyllido",
    "id": 2741,
    "translations": [ "to finance" ]
  },
  {
    "normalForm": "cellweirio",
    "id": 2748,
    "translations": [ "to jest" ]
  },
  {
    "normalForm": "cosi",
    "id": 2751,
    "translations": [ "to itch" ]
  },
  {
    "normalForm": "cobleru",
    "id": 2757,
    "translations": [ "to cobble" ]
  },
  {
    "normalForm": "cledru",
    "id": 2772,
    "translations": [ "to beat" ]
  },
  {
    "normalForm": "camdeipio",
    "id": 2781,
    "translations": [ "to mistype" ]
  },
  {
    "normalForm": "cyd-deimlo",
    "id": 2783,
    "translations": [ "to sympathise" ]
  },
  {
    "normalForm": "crwnio",
    "id": 2787,
    "translations": [ "to croon" ]
  },
  {
    "normalForm": "chwysu",
    "id": 2788,
    "translations": [ "to perspire" ]
  },
  {
    "normalForm": "codymu",
    "id": 2793,
    "translations": [ "to tumble" ]
  },
  {
    "normalForm": "cydeistedd",
    "id": 2794,
    "translations": [ "to sit jointly" ]
  },
  {
    "normalForm": "cigyddio",
    "id": 2801,
    "translations": [ "to butcher" ]
  },
  {
    "normalForm": "cên",
    "id": 2803,
    "translations": [ "to trouble" ]
  },
  {
    "normalForm": "ciwbio",
    "id": 2813,
    "translations": [ "to cube" ]
  },
  {
    "normalForm": "camfucheddu",
    "id": 2815,
    "translations": [ "to lead a dissolute life" ]
  },
  {
    "normalForm": "cydraddu",
    "id": 2819,
    "translations": [ "to equalise" ]
  },
  {
    "normalForm": "clemio",
    "id": 2831,
    "translations": [ "to patch" ]
  },
  {
    "normalForm": "cyfartalu",
    "id": 2838,
    "translations": [ "to equalise" ]
  },
  {
    "normalForm": "crachennu",
    "id": 2840,
    "translations": [ "to become scabby" ]
  },
  {
    "normalForm": "cyfrdroi",
    "stem": "cyfrdrois",
    "id": 2844,
    "translations": [ "to permute" ]
  },
  {
    "normalForm": "camddarlunio",
    "id": 2849,
    "translations": [ "to misrepresent" ]
  },
  {
    "normalForm": "crestennu",
    "id": 2863,
    "translations": [ "to encrust" ]
  },
  {
    "normalForm": "camddeall",
    "stem": "camddeell",
    "id": 2865,
    "translations": [ "to misunderstand" ]
  },
  {
    "normalForm": "cyfredeg",
    "id": 2882,
    "translations": [ "to keep pace with" ]
  },
  {
    "normalForm": "cyflegru",
    "id": 2887,
    "translations": [ "to bombard" ]
  },
  {
    "normalForm": "cyfeillacha",
    "id": 2917,
    "translations": [ "to associate with" ]
  },
  {
    "normalForm": "cysgodi",
    "id": 2933,
    "translations": [ "to shelter" ]
  },
  {
    "normalForm": "cyrcydu",
    "id": 2940,
    "translations": [ "to squat" ]
  },
  {
    "normalForm": "coegi",
    "id": 2941,
    "translations": [ "to lampoon" ]
  },
  {
    "normalForm": "cluro",
    "id": 2948,
    "translations": [ "to colour" ]
  },
  {
    "normalForm": "cydorwedd",
    "id": 2954,
    "translations": [ "to copulate" ]
  },
  {
    "normalForm": "crychu",
    "id": 2955,
    "translations": [ "to wrinkle" ]
  },
  {
    "normalForm": "castellu",
    "id": 2965,
    "translations": [ "to fortify" ]
  },
  {
    "normalForm": "coffa",
    "id": 2967,
    "translations": [ "to memory" ]
  },
  {
    "normalForm": "cyrnio",
    "id": 2970,
    "translations": [ "to pile up" ]
  },
  {
    "normalForm": "chwibanu",
    "id": 2978,
    "translations": [ "to whistle" ]
  },
  {
    "normalForm": "cynheica",
    "id": 2983,
    "translations": [ "to be in heat" ]
  },
  {
    "normalForm": "caffael",
    "id": 2984,
    "translations": [ "to acquire" ]
  },
  {
    "normalForm": "chwydu",
    "id": 2986,
    "translations": [ "to vomit" ]
  },
  {
    "normalForm": "cyd-deithio",
    "id": 2989,
    "translations": [ "to travel together" ]
  },
  {
    "normalForm": "coedwigo",
    "id": 2990,
    "translations": [ "to forest" ]
  },
  {
    "normalForm": "camfanteisio",
    "id": 3016,
    "translations": [ "to disadvantage" ]
  },
  {
    "normalForm": "cydganlyn",
    "id": 3019,
    "translations": [ "to accompany" ]
  },
  {
    "normalForm": "cymynroddi",
    "id": 3046,
    "translations": [ "to bequeath" ]
  },
  {
    "normalForm": "cythryblu",
    "id": 3055,
    "translations": [ "to harass" ]
  },
  {
    "normalForm": "cyfreithio",
    "id": 3071,
    "translations": [ "to litigate" ]
  },
  {
    "normalForm": "cenglu",
    "id": 3073,
    "translations": [ "to wind" ]
  },
  {
    "normalForm": "cleio",
    "id": 3079,
    "translations": [ "to put clay on" ]
  },
  {
    "normalForm": "costio",
    "id": 3083,
    "translations": [ "to cost" ]
  },
  {
    "normalForm": "chwilota",
    "id": 3087,
    "translations": [ "to search" ]
  },
  {
    "normalForm": "chwylo",
    "id": 3104,
    "translations": [ "to revolve" ]
  },
  {
    "normalForm": "comisiynu",
    "id": 3106,
    "translations": [ "to commission" ]
  },
  {
    "normalForm": "cydoesi",
    "id": 3125,
    "translations": [ "to be contemporary" ]
  },
  {
    "normalForm": "clipio",
    "id": 3127,
    "translations": [ "to clip" ]
  },
  {
    "normalForm": "cymynnu",
    "id": 3131,
    "translations": [ "to bequeath" ]
  },
  {
    "normalForm": "cynganeddu",
    "id": 3132,
    "translations": [ "to compose verse" ]
  },
  {
    "normalForm": "crogi",
    "id": 3133,
    "translations": [ "to hang" ]
  },
  {
    "normalForm": "ceibo",
    "id": 3140,
    "translations": [ "to dig" ]
  },
  {
    "normalForm": "cydfwriadu",
    "stem": "cydfwried",
    "id": 3148,
    "translations": [ "to plan together" ]
  },
  {
    "normalForm": "chwifio",
    "id": 3151,
    "translations": [ "to wave" ]
  },
  {
    "normalForm": "cymoni",
    "id": 3163,
    "translations": [ "to adapt" ]
  },
  {
    "normalForm": "cynrhoni",
    "id": 3167,
    "translations": [ "to breed maggots" ]
  },
  {
    "normalForm": "cyboli",
    "id": 3179,
    "translations": [ "to talk nonsense" ]
  },
  {
    "normalForm": "clownio",
    "id": 3183,
    "translations": [ "to clown" ]
  },
  {
    "normalForm": "credydu",
    "id": 3201,
    "translations": [ "to credit" ]
  },
  {
    "normalForm": "cynanu",
    "stem": "cynen",
    "id": 3208,
    "translations": [ "to pronounce" ]
  },
  {
    "normalForm": "clwyfo",
    "id": 3214,
    "translations": [ "to wound" ]
  },
  {
    "normalForm": "cwlio",
    "id": 3234,
    "translations": [ "to reproach" ]
  },
  {
    "normalForm": "cyduno",
    "id": 3238,
    "translations": [ "to unite" ]
  },
  {
    "normalForm": "ciwrio",
    "id": 3243,
    "translations": [ "to cure" ]
  },
  {
    "normalForm": "cydfarnu",
    "stem": "cydfern",
    "id": 3250,
    "translations": [ "to judge jointly" ]
  },
  {
    "normalForm": "camgyfrifo",
    "id": 3251,
    "translations": [ "to miscalculate" ]
  },
  {
    "normalForm": "croeni",
    "id": 3254,
    "translations": [ "to skin" ]
  },
  {
    "normalForm": "cyfarwain",
    "stem": "cyfarweini",
    "id": 3260,
    "translations": [ "to conduct" ]
  },
  {
    "normalForm": "camgymeryd",
    "id": 3269,
    "translations": [ "to mistake" ]
  },
  {
    "normalForm": "crefu",
    "id": 3273,
    "translations": [ "to implore" ]
  },
  {
    "normalForm": "cymhennu",
    "id": 3274,
    "translations": [ "to tidy" ]
  },
  {
    "normalForm": "cofleidio",
    "id": 3275,
    "translations": [ "to hug" ]
  },
  {
    "normalForm": "cydroddi",
    "id": 3280,
    "translations": [ "to contribute" ]
  },
  {
    "normalForm": "camsynio",
    "id": 3284,
    "translations": [ "to mistake" ]
  },
  {
    "normalForm": "cwtogi",
    "id": 3285,
    "translations": [ "to shorten" ]
  },
  {
    "normalForm": "cwrian",
    "id": 3290,
    "translations": [ "to cower" ]
  },
  {
    "normalForm": "chwarterio",
    "id": 3293,
    "translations": [ "to quarter" ]
  },
  {
    "normalForm": "cymodi",
    "id": 3308,
    "translations": [ "to reconcile" ]
  },
  {
    "normalForm": "cebystru",
    "id": 3345,
    "translations": [ "to halter" ]
  },
  {
    "normalForm": "clercio",
    "id": 3349,
    "translations": [ "to clerk" ]
  },
  {
    "normalForm": "cyfatebu",
    "id": 3353,
    "translations": [ "to correspond to" ]
  },
  {
    "normalForm": "camenwi",
    "stem": "camen",
    "id": 3354,
    "translations": [ "to miscall" ]
  },
  {
    "normalForm": "codio",
    "id": 3356,
    "translations": [ "to code" ]
  },
  {
    "normalForm": "cyfanwerthu",
    "id": 3357,
    "translations": [ "to wholesale" ]
  },
  {
    "normalForm": "crafangu",
    "id": 3364,
    "translations": [ "to claw" ]
  },
  {
    "normalForm": "cydweld",
    "id": 3365,
    "translations": [ "to agree" ]
  },
  {
    "normalForm": "cywyddu",
    "id": 3369,
    "translations": [ "to versify" ]
  },
  {
    "normalForm": "codlo",
    "id": 3372,
    "translations": [ "to muddle" ]
  },
  {
    "normalForm": "chwanegu",
    "id": 3374,
    "translations": [ "to increase" ]
  },
  {
    "normalForm": "crefftwra",
    "id": 3390,
    "translations": [ "to practise a craft" ]
  },
  {
    "normalForm": "colynnu",
    "id": 3393,
    "translations": [ "to sting" ]
  },
  {
    "normalForm": "clunhercio",
    "id": 3399,
    "translations": [ "to hobble along" ]
  },
  {
    "normalForm": "clustnodi",
    "id": 3401,
    "translations": [ "to earmark" ]
  },
  {
    "normalForm": "caniatâf",
    "id": 3417,
    "translations": [ "to permit" ]
  },
  {
    "normalForm": "cethru",
    "id": 3418,
    "translations": [ "to pierce" ]
  },
  {
    "normalForm": "croesgyfeirio",
    "id": 3420,
    "translations": [ "to cross-refer" ]
  },
  {
    "normalForm": "camdyngu",
    "id": 3423,
    "translations": [ "to swear falsely" ]
  },
  {
    "normalForm": "cyhydeddu",
    "id": 3424,
    "translations": [ "to divide equally" ]
  },
  {
    "normalForm": "camfeddwl",
    "stem": "camfeddyli",
    "id": 3429,
    "translations": [ "to misapprehend" ]
  },
  {
    "normalForm": "chwimio",
    "id": 3431,
    "translations": [ "to budge" ]
  },
  {
    "normalForm": "creuloni",
    "id": 3433,
    "translations": [ "to become cruel" ]
  },
  {
    "normalForm": "clwydo",
    "id": 3437,
    "translations": [ "to roost" ]
  },
  {
    "normalForm": "carfaglu",
    "id": 3446,
    "translations": [ "to ensnare" ]
  },
  {
    "normalForm": "chwyrnellu",
    "id": 3456,
    "translations": [ "to whirl" ]
  },
  {
    "normalForm": "compostio",
    "id": 3467,
    "translations": [ "to compost" ]
  },
  {
    "normalForm": "chwantu",
    "id": 3470,
    "translations": [ "to lust after" ]
  },
  {
    "normalForm": "concro",
    "id": 3476,
    "translations": [ "to conquer" ]
  },
  {
    "normalForm": "crawnio",
    "id": 3481,
    "translations": [ "to fester" ]
  },
  {
    "normalForm": "cydlifio",
    "id": 3482,
    "translations": [ "to flow together" ]
  },
  {
    "normalForm": "cynilo",
    "id": 3490,
    "translations": [ "to save" ]
  },
  {
    "normalForm": "cydgroesi",
    "id": 3508,
    "translations": [ "to concur" ]
  },
  {
    "normalForm": "coleddu",
    "id": 3517,
    "translations": [ "to cherish" ]
  },
  {
    "normalForm": "clapio",
    "id": 3523,
    "translations": [ "to clap" ]
  },
  {
    "normalForm": "cenfigennu",
    "id": 3532,
    "translations": [ "to envy" ]
  },
  {
    "normalForm": "cyfarpar",
    "stem": "cyfarper",
    "id": 3543,
    "translations": [ "to prepare" ]
  },
  {
    "normalForm": "creinio",
    "id": 3552,
    "translations": [ "to wallow" ]
  },
  {
    "normalForm": "cyfenwi",
    "stem": "cyfen",
    "id": 3558,
    "translations": [ "to name" ]
  },
  {
    "normalForm": "cyfrifiannu",
    "id": 3560,
    "translations": [ "to compute" ]
  },
  {
    "normalForm": "cownto",
    "id": 3561,
    "translations": [ "to count" ]
  },
  {
    "normalForm": "cyfaddawdu",
    "id": 3562,
    "translations": [ "to compromise" ]
  },
  {
    "normalForm": "chwerwi",
    "stem": "chwer",
    "id": 3565,
    "translations": [ "to become bitter" ]
  },
  {
    "normalForm": "cysidro",
    "id": 3576,
    "translations": [ "to consider" ]
  },
  {
    "normalForm": "cludo",
    "id": 3593,
    "translations": [ "to carry" ]
  },
  {
    "normalForm": "cyd-destunoli",
    "id": 3613,
    "translations": [ "to contextualise" ]
  },
  {
    "normalForm": "cydgyffwrdd",
    "stem": "cydgyffyrdd",
    "id": 3616,
    "translations": [ "to coincide" ]
  },
  {
    "normalForm": "copideipio",
    "id": 3618,
    "translations": [ "to copy-type" ]
  },
  {
    "normalForm": "chwysigennu",
    "id": 3621,
    "translations": [ "to blister" ]
  },
  {
    "normalForm": "cernodio",
    "id": 3626,
    "translations": [ "to cuff" ]
  },
  {
    "normalForm": "croestynnu",
    "id": 3628,
    "translations": [ "to disagree" ]
  },
  {
    "normalForm": "cruglwytho",
    "id": 3643,
    "translations": [ "to heap together" ]
  },
  {
    "normalForm": "cribddeilio",
    "id": 3645,
    "translations": [ "to extort" ]
  },
  {
    "normalForm": "cyfathrachu",
    "id": 3650,
    "translations": [ "to mix" ]
  },
  {
    "normalForm": "cyfrio",
    "id": 3651,
    "translations": [ "to cover" ]
  },
  {
    "normalForm": "crynodebu",
    "id": 3659,
    "translations": [ "to summarise" ]
  },
  {
    "normalForm": "camwahaniaethu",
    "id": 3670,
    "translations": [ "to discriminate" ]
  },
  {
    "normalForm": "chwimgysylltu",
    "id": 3672,
    "translations": [ "to quickconnect" ]
  },
  {
    "normalForm": "citio",
    "id": 3676,
    "translations": [ "to kit out" ]
  },
  {
    "normalForm": "cydgadwyno",
    "id": 3689,
    "translations": [ "to concatenate" ]
  },
  {
    "normalForm": "cymeriadu",
    "id": 3691,
    "translations": [ "to portray" ]
  },
  {
    "normalForm": "clatsian",
    "id": 3701,
    "translations": [ "to crackle" ]
  },
  {
    "normalForm": "copio",
    "id": 3702,
    "translations": [ "to cope" ]
  },
  {
    "normalForm": "ciwio",
    "id": 3704,
    "translations": [ "to queue" ]
  },
  {
    "normalForm": "cilagor",
    "id": 3707,
    "translations": [ "to half-open" ]
  },
  {
    "normalForm": "cuchio",
    "id": 3719,
    "translations": [ "to scowl" ]
  },
  {
    "normalForm": "cyseilio",
    "id": 3721,
    "translations": [ "to institute" ]
  },
  {
    "normalForm": "cymowta",
    "id": 3722,
    "translations": [ "to gallivant" ]
  },
  {
    "normalForm": "camochri",
    "id": 3724,
    "translations": [ "to go offside" ]
  },
  {
    "normalForm": "cyfareddu",
    "id": 3727,
    "translations": [ "to bewitch" ]
  },
  {
    "normalForm": "coroni",
    "id": 3736,
    "translations": [ "to crown" ]
  },
  {
    "normalForm": "caentach",
    "id": 3746,
    "translations": [ "to wrangle" ]
  },
  {
    "normalForm": "cildynnu",
    "id": 3748,
    "translations": [ "to become obstinate" ]
  },
  {
    "normalForm": "cydberthyn",
    "id": 3757,
    "translations": [ "to belong together" ]
  },
  {
    "normalForm": "cylchredeg",
    "id": 3759,
    "translations": [ "to circulate" ]
  },
  {
    "normalForm": "cadwyno",
    "id": 3769,
    "translations": [ "to chain" ]
  },
  {
    "normalForm": "cybyddu",
    "id": 3772,
    "translations": [ "to covet" ]
  },
  {
    "normalForm": "clewtio",
    "id": 3787,
    "translations": [ "to clout" ]
  },
  {
    "normalForm": "cynhyrfu",
    "id": 3797,
    "translations": [ "to agitate" ]
  },
  {
    "normalForm": "caca",
    "id": 3826,
    "translations": [ "to defecate" ]
  },
  {
    "normalForm": "chwibianu",
    "id": 3827,
    "translations": [ "to whistle" ]
  },
  {
    "normalForm": "clecian",
    "id": 3844,
    "translations": [ "to tell tales" ]
  },
  {
    "normalForm": "cysoni",
    "id": 3849,
    "translations": [ "to reconcile" ]
  },
  {
    "normalForm": "camffurfio",
    "id": 3850,
    "translations": [ "to malform" ]
  },
  {
    "normalForm": "cripian",
    "id": 3853,
    "translations": [ "to crawl" ]
  },
  {
    "normalForm": "chwyddhau",
    "stem": "chwyddhe",
    "id": 3857,
    "translations": [ "to swell" ]
  },
  {
    "normalForm": "cwfwr",
    "id": 3866,
    "translations": [ "to meet" ]
  },
  {
    "normalForm": "camarfer",
    "id": 3886,
    "translations": [ "to misuse" ]
  },
  {
    "normalForm": "clodi",
    "id": 3887,
    "translations": [ "to praise" ]
  },
  {
    "normalForm": "cyrlio",
    "id": 3890,
    "translations": [ "to curl" ]
  },
  {
    "normalForm": "cofweini",
    "id": 3902,
    "translations": [ "to prompt" ]
  },
  {
    "normalForm": "camymddwyn",
    "stem": "camymddyg",
    "id": 3909,
    "translations": [ "to misbehave" ]
  },
  {
    "normalForm": "crensio",
    "id": 3916,
    "translations": [ "to crunch" ]
  },
  {
    "normalForm": "cyd-dyfu",
    "id": 3919,
    "translations": [ "to grow togther" ]
  },
  {
    "normalForm": "cafflo",
    "id": 3920,
    "translations": [ "to cheat" ]
  },
  {
    "normalForm": "cyd-ddioddef",
    "id": 3921,
    "translations": [ "to suffer together" ]
  },
  {
    "normalForm": "camfesur",
    "id": 3927,
    "translations": [ "to estimate wrongly" ]
  },
  {
    "normalForm": "colledu",
    "id": 3928,
    "translations": [ "to damage" ]
  },
  {
    "normalForm": "compiwtereiddio",
    "id": 3934,
    "translations": [ "to computerise" ]
  },
  {
    "normalForm": "crygu",
    "id": 3937,
    "translations": [ "to become hoarse" ]
  },
  {
    "normalForm": "cleisio",
    "id": 3940,
    "translations": [ "to bruise" ]
  },
  {
    "normalForm": "crio",
    "id": 3941,
    "translations": [ "to cry" ]
  },
  {
    "normalForm": "cydio",
    "id": 3942,
    "translations": [ "to grip" ]
  },
  {
    "normalForm": "cychio",
    "id": 3946,
    "translations": [ "to keep bees" ]
  },
  {
    "normalForm": "cribo",
    "id": 3949,
    "translations": [ "to comb" ]
  },
  {
    "normalForm": "crechwenu",
    "id": 3955,
    "translations": [ "to guffaw" ]
  },
  {
    "normalForm": "cordeddu",
    "id": 3960,
    "translations": [ "to twine" ]
  },
  {
    "normalForm": "chwyldroi",
    "stem": "chwyldrois",
    "id": 3971,
    "translations": [ "to revolve" ]
  },
  {
    "normalForm": "cylchynu",
    "id": 3980,
    "translations": [ "to surround" ]
  },
  {
    "normalForm": "crewcian",
    "id": 3982,
    "translations": [ "to croak" ]
  },
  {
    "normalForm": "cwpanu",
    "id": 3983,
    "translations": [ "to cup" ]
  },
  {
    "normalForm": "cyweirio",
    "id": 3987,
    "translations": [ "to set in order" ]
  },
  {
    "normalForm": "clebar",
    "id": 3990,
    "translations": [ "to chatter" ]
  },
  {
    "normalForm": "cliciedu",
    "id": 4004,
    "translations": [ "to fasten with a latch" ]
  },
  {
    "normalForm": "cyd-dynnu",
    "id": 4006,
    "translations": [ "to act in harmony" ]
  },
  {
    "normalForm": "clariffeio",
    "id": 4012,
    "translations": [ "to clarify" ]
  },
  {
    "normalForm": "camddefnyddio",
    "id": 4013,
    "translations": [ "to misuse" ]
  },
  {
    "normalForm": "cydateb",
    "id": 4015,
    "translations": [ "to correspond" ]
  },
  {
    "normalForm": "cegrythu",
    "id": 4026,
    "translations": [ "to yawn" ]
  },
  {
    "normalForm": "cysodi",
    "stem": "cysodi",
    "id": 4027,
    "translations": [ "to typeset" ]
  },
  {
    "normalForm": "cyfansoddi",
    "id": 4029,
    "translations": [ "to compose" ]
  },
  {
    "normalForm": "cyfrifo",
    "id": 4030,
    "translations": [ "to count" ]
  },
  {
    "normalForm": "caglo",
    "id": 4034,
    "translations": [ "to befoul" ]
  },
  {
    "normalForm": "chwidlo",
    "id": 4035,
    "translations": [ "to inform on" ]
  },
  {
    "normalForm": "caglu",
    "id": 4039,
    "translations": [ "to void" ]
  },
  {
    "normalForm": "ceryddu",
    "id": 4055,
    "translations": [ "to scold" ]
  },
  {
    "normalForm": "cracio",
    "id": 4057,
    "translations": [ "to crack" ]
  },
  {
    "normalForm": "castio",
    "id": 4059,
    "translations": [ "to cast" ]
  },
  {
    "normalForm": "cymreigio",
    "stem": "cymreig",
    "id": 4062,
    "translations": [ "to cymricise" ]
  },
  {
    "normalForm": "crefyddu",
    "id": 4066,
    "translations": [ "to worship" ]
  },
  {
    "normalForm": "cnecu",
    "id": 4069,
    "translations": [ "to jar" ]
  },
  {
    "normalForm": "cydariannu",
    "stem": "cydarienn",
    "id": 4075,
    "translations": [ "to co-finance" ]
  },
  {
    "normalForm": "costrelu",
    "id": 4077,
    "translations": [ "to bottle" ]
  },
  {
    "normalForm": "camgolledu",
    "id": 4084,
    "translations": [ "to defraud" ]
  },
  {
    "normalForm": "cyfantoli",
    "id": 4086,
    "translations": [ "to balance" ]
  },
  {
    "normalForm": "cyfebru",
    "id": 4088,
    "translations": [ "to conceive" ]
  },
  {
    "normalForm": "cardota",
    "id": 4090,
    "translations": [ "to beg" ]
  },
  {
    "normalForm": "cydbwyso",
    "id": 4097,
    "translations": [ "to balance" ]
  },
  {
    "normalForm": "cynllwyno",
    "id": 4100,
    "translations": [ "to plot" ]
  },
  {
    "normalForm": "cocsio",
    "id": 4112,
    "translations": [ "to coax" ]
  },
  {
    "normalForm": "cafnio",
    "id": 4114,
    "translations": [ "to hollow" ]
  },
  {
    "normalForm": "cyffesu",
    "id": 4117,
    "translations": [ "to confess" ]
  },
  {
    "normalForm": "chwarelu",
    "id": 4127,
    "translations": [ "to quarry" ]
  },
  {
    "normalForm": "cydgyfeirio",
    "id": 4135,
    "translations": [ "to converge" ]
  },
  {
    "normalForm": "cynhebrwng",
    "id": 4138,
    "translations": [ "to accompany" ]
  },
  {
    "normalForm": "caiacio",
    "id": 4150,
    "translations": [ "to kayak" ]
  },
  {
    "normalForm": "cydfagu",
    "stem": "cydfeg",
    "id": 4157,
    "translations": [ "to raise jointly" ]
  },
  {
    "normalForm": "camdystiolaethu",
    "id": 4164,
    "translations": [ "to commit perjury" ]
  },
  {
    "normalForm": "cyfannedd",
    "id": 4166,
    "translations": [ "to inhabit" ]
  },
  {
    "normalForm": "crasgnoi",
    "stem": "crasgnois",
    "id": 4174,
    "translations": [ "to crunch" ]
  },
  {
    "normalForm": "cyfresoli",
    "id": 4180,
    "translations": [ "to serialise" ]
  },
  {
    "normalForm": "cnocio",
    "id": 4182,
    "translations": [ "to knock" ]
  },
  {
    "normalForm": "cylcharwain",
    "stem": "cylcharweini",
    "id": 4186,
    "translations": [ "to lead about" ]
  },
  {
    "normalForm": "cwafftio",
    "id": 4187,
    "translations": [ "to quaff" ]
  },
  {
    "normalForm": "camweddu",
    "id": 4196,
    "translations": [ "to transgress" ]
  },
  {
    "normalForm": "cynffonna",
    "id": 4197,
    "translations": [ "to toady" ]
  },
  {
    "normalForm": "catalyddu",
    "id": 4204,
    "translations": [ "to catalyse" ]
  },
  {
    "normalForm": "cymhwyso",
    "id": 4206,
    "translations": [ "to adapt" ]
  },
  {
    "normalForm": "cydgynllunio",
    "id": 4207,
    "translations": [ "to collude" ]
  },
  {
    "normalForm": "cyfyngu",
    "id": 4213,
    "translations": [ "to limit" ]
  },
  {
    "normalForm": "chwilfriwio",
    "id": 4214,
    "translations": [ "to smash" ]
  },
  {
    "normalForm": "cannu",
    "id": 4222,
    "translations": [ "to bleach" ]
  },
  {
    "normalForm": "catalogio",
    "id": 4224,
    "translations": [ "to catalogue" ]
  },
  {
    "normalForm": "cowntio",
    "id": 4229,
    "translations": [ "to count" ]
  },
  {
    "normalForm": "cyd-uno",
    "id": 4232,
    "translations": [ "to join together" ]
  },
  {
    "normalForm": "cwnnu",
    "id": 4239,
    "translations": [ "to rise" ]
  },
  {
    "normalForm": "cydfyned",
    "id": 4248,
    "translations": [ "to go together" ]
  },
  {
    "normalForm": "conffirmio",
    "id": 4251,
    "translations": [ "to confirm" ]
  },
  {
    "normalForm": "confictio",
    "id": 4254,
    "translations": [ "to convict" ]
  },
  {
    "normalForm": "camgymryd",
    "stem": "camgymer",
    "id": 4259,
    "translations": [ "to mistake" ]
  },
  {
    "normalForm": "cysegru",
    "id": 4263,
    "translations": [ "to consecrate" ]
  },
  {
    "normalForm": "cawodi",
    "id": 4271,
    "translations": [ "to shower" ]
  },
  {
    "normalForm": "coluro",
    "id": 4273,
    "translations": [ "to colour" ]
  },
  {
    "normalForm": "camleoli",
    "id": 4275,
    "translations": [ "to misplace" ]
  },
  {
    "normalForm": "crawcio",
    "id": 4276,
    "translations": [ "to croak" ]
  },
  {
    "normalForm": "ciniawa",
    "stem": "cinia",
    "id": 4278,
    "translations": [ "to dine" ]
  },
  {
    "normalForm": "compario",
    "id": 4285,
    "translations": [ "to compare" ]
  },
  {
    "normalForm": "cymdeithasu",
    "id": 4288,
    "translations": [ "to associate" ]
  },
  {
    "normalForm": "caethgludo",
    "id": 4295,
    "translations": [ "to deport" ]
  },
  {
    "normalForm": "cyd-ddefnyddio",
    "id": 4306,
    "translations": [ "to share the use of" ]
  },
  {
    "normalForm": "cymuno",
    "id": 4314,
    "translations": [ "to communicate" ]
  },
  {
    "normalForm": "camgyhuddo",
    "id": 4325,
    "translations": [ "to accuse falsely" ]
  },
  {
    "normalForm": "cneifio",
    "id": 4327,
    "translations": [ "to shear" ]
  },
  {
    "normalForm": "cymeradwyo",
    "id": 4329,
    "translations": [ "to approve" ]
  },
  {
    "normalForm": "crymanu",
    "id": 4332,
    "translations": [ "to slice" ]
  },
  {
    "normalForm": "cydfenthyg",
    "stem": "cydfenthyc",
    "id": 4335,
    "translations": [ "to borrow jointly" ]
  },
  {
    "normalForm": "chwiblo",
    "id": 4339,
    "translations": [ "to turn sour" ]
  },
  {
    "normalForm": "cywain",
    "stem": "cyweini",
    "id": 4340,
    "translations": [ "to haul" ]
  },
  {
    "normalForm": "canolbwyntio",
    "id": 4353,
    "translations": [ "to concentrate" ]
  },
  {
    "normalForm": "cael gwared o",
    "id": 4360,
    "translations": [ "to get rid of" ]
  },
  {
    "normalForm": "colfachu",
    "id": 4370,
    "translations": [ "to hinge" ]
  },
  {
    "normalForm": "clandrio",
    "id": 4373,
    "translations": [ "to reckon" ]
  },
  {
    "normalForm": "camhysbysu",
    "id": 4376,
    "translations": [ "to mislead" ]
  },
  {
    "normalForm": "cyfliwio",
    "id": 4384,
    "translations": [ "to tint" ]
  },
  {
    "normalForm": "cornio",
    "id": 4390,
    "translations": [ "to gore" ]
  },
  {
    "normalForm": "creiddio",
    "id": 4394,
    "translations": [ "to centralise" ]
  },
  {
    "normalForm": "calchio",
    "id": 4404,
    "translations": [ "to lime" ]
  },
  {
    "normalForm": "croesdorri",
    "id": 4409,
    "translations": [ "to intersect" ]
  },
  {
    "normalForm": "cytio",
    "id": 4417,
    "translations": [ "to pen" ]
  },
  {
    "normalForm": "cychu",
    "id": 4420,
    "translations": [ "to keep bees" ]
  },
  {
    "normalForm": "cywiro",
    "id": 4422,
    "translations": [ "to correct" ]
  },
  {
    "normalForm": "canŵio",
    "id": 4437,
    "translations": [ "to canoe" ]
  },
  {
    "normalForm": "clero",
    "id": 4439,
    "translations": [ "to frisk" ]
  },
  {
    "normalForm": "cydymagweddu",
    "id": 4444,
    "translations": [ "to conform" ]
  },
  {
    "normalForm": "cyflyru",
    "id": 4447,
    "translations": [ "to condition" ]
  },
  {
    "normalForm": "clatsio",
    "id": 4450,
    "translations": [ "to clout" ]
  },
  {
    "normalForm": "cyfresymu",
    "id": 4451,
    "translations": [ "to syllogise" ]
  },
  {
    "normalForm": "cyfaddasu",
    "id": 4457,
    "translations": [ "to adapt" ]
  },
  {
    "normalForm": "cafnu",
    "id": 4463,
    "translations": [ "to hollow" ]
  },
  {
    "normalForm": "cofrestru",
    "id": 4465,
    "translations": [ "to register" ]
  },
  {
    "normalForm": "cenhadu",
    "stem": "cenhed",
    "id": 4466,
    "translations": [ "to proselytise" ]
  },
  {
    "normalForm": "cogio",
    "id": 4471,
    "translations": [ "to pretend" ]
  },
  {
    "normalForm": "crydu",
    "id": 4478,
    "translations": [ "to tremble" ]
  },
  {
    "normalForm": "cyfeirnodi",
    "id": 4480,
    "translations": [ "to reference" ]
  },
  {
    "normalForm": "claeru",
    "id": 4484,
    "translations": [ "to become lukewarm" ]
  },
  {
    "normalForm": "cymudo",
    "id": 4486,
    "translations": [ "to commute" ]
  },
  {
    "normalForm": "cancro",
    "id": 4489,
    "translations": [ "to fester" ]
  },
  {
    "normalForm": "cancru",
    "id": 4490,
    "translations": [ "to fester" ]
  },
  {
    "normalForm": "clytio",
    "stem": "clyt",
    "id": 4492,
    "translations": [ "to patch" ]
  },
  {
    "normalForm": "cenedlaetholi",
    "id": 4494,
    "translations": [ "to nationalise" ]
  },
  {
    "normalForm": "crabio",
    "id": 4508,
    "translations": [ "to waste away" ]
  },
  {
    "normalForm": "cwacian",
    "id": 4514,
    "translations": [ "to quack" ]
  },
  {
    "normalForm": "cyffredinoli",
    "id": 4516,
    "translations": [ "to generalise" ]
  },
  {
    "normalForm": "cyllellu",
    "id": 4526,
    "translations": [ "to gash" ]
  },
  {
    "normalForm": "cwiltio",
    "id": 4527,
    "translations": [ "to quilt" ]
  },
  {
    "normalForm": "chwincio",
    "id": 4529,
    "translations": [ "to wink" ]
  },
  {
    "normalForm": "cyfathrebu",
    "id": 4531,
    "translations": [ "to communicate" ]
  },
  {
    "normalForm": "cythru",
    "id": 4541,
    "translations": [ "to rush" ]
  },
  {
    "normalForm": "canoneiddio",
    "id": 4566,
    "translations": [ "to canonise" ]
  },
  {
    "normalForm": "carpio",
    "id": 4571,
    "translations": [ "to tear" ]
  },
  {
    "normalForm": "cystuddio",
    "id": 4577,
    "translations": [ "to vex" ]
  },
  {
    "normalForm": "celffeinio",
    "id": 4584,
    "translations": [ "to wither" ]
  },
  {
    "normalForm": "crimpio",
    "id": 4595,
    "translations": [ "to crimp" ]
  },
  {
    "normalForm": "cywilyddio",
    "id": 4606,
    "translations": [ "to shame" ]
  },
  {
    "normalForm": "camwario",
    "id": 4611,
    "translations": [ "to squander" ]
  },
  {
    "normalForm": "cyflynu",
    "id": 4612,
    "translations": [ "to cohere" ]
  },
  {
    "normalForm": "cydadfer",
    "id": 4632,
    "translations": [ "to compensate" ]
  },
  {
    "normalForm": "cam",
    "stem": "camu",
    "id": 4646,
    "translations": [ "to step" ]
  },
  {
    "normalForm": "cloffi",
    "id": 4651,
    "translations": [ "to limp" ]
  },
  {
    "normalForm": "cnulio",
    "id": 4653,
    "translations": [ "to clamour" ]
  },
  {
    "normalForm": "cyflymu",
    "id": 4664,
    "translations": [ "to accelerate" ]
  }
]
